feature	total_effect	total_effect_z_score	projections	permutation_1		permutation_2		permutation_3		permutation_4		permutation_5		permutation_6		permutation_7		permutation_8		permutation_9		permutation_10	
univariate.cont.gaussian99	2.3762299465240644	2052.0464216635064	11	0.0130882352941176	0.01078431372549022	0.00757352941176469	0.008470588235294129	0.012352941176470622	0.007352941176470618	0.012426470588235303	0.012647058823529423	0.012352941176470544	0.02235294117647063
bivariate.cont.dominant.B	1.158562091503268	865.5375153751646	9	0.008588235294117655	0.0075000000000000734	0.007352941176470562	0.007058823529411747	0.010735294117647037	0.007254901960784321	0.00970588235294113	0.011764705882352932	0.009558823529411753	0.008921568627450987
bivariate.discrete.dominant.A	1.147058823529412	1637.3239436620274	8	0.007794117647058849	0.006647058823529431	0.006323529411764723	0.00705882352941174	0.008039215686274482	0.006764705882352957	0.008470588235294127	0.006176470588235308	0.00764705882352944	0.008676470588235263
bivariate.cont.dominant.A	1.1346732026143789	4211.270152505416	9	0.00558823529411766	0.006529411764705864	0.006302521008403361	0.006764705882352948	0.006617647058823522	0.006691176470588214	0.00683823529411765	0.006078431372549012	0.007058823529411851	0.008161764705882377
bivariate.discrete.dominant.B	0.8573529411764705	2630.2066115702287	11	0.004754901960784301	0.0061176470588235315	0.005735294117647063	0.006336898395721929	0.00647058823529415	0.006601307189542486	0.006806722689075625	0.005661764705882349	0.006764705882352948	0.0064705882352941325
bivariate.cont.recessive.A	0.8174999999999999	2179.398496240582	8	0.00470588235294116	0.006117647058823521	0.005588235294117653	0.006029411764705861	0.005980392156862746	0.005454545454545461	0.005235294117647053	0.005477941176470591	0.005546218487394965	0.006421568627450971
univariate.cont.gaussian80	0.7981764705882354	2263.946999999949	5	0.004632352941176479	0.005764705882352958	0.005588235294117632	0.005980392156862746	0.005798319327731105	0.005367647058823529	0.0047058823529412	0.00519607843137256	0.005098039215686271	0.006323529411764684
bivariate.cont.recessive.B	0.7375980392156863	2304.6556473828537	6	0.004617647058823539	0.005625000000000003	0.005367647058823527	0.00588235294117649	0.005588235294117659	0.005210084033613443	0.004632352941176454	0.005049019607843154	0.005098039215686257	0.005882352941176464
bivariate.discrete.recessive.B	0.7285294117647059	2035.477832512234	4	0.0044852941176470595	0.005514705882352952	0.005147058823529444	0.005661764705882352	0.00536764705882353	0.005126050420168065	0.004509803921568619	0.004803921568627433	0.005000000000000016	0.005672268907563045
bivariate.discrete.recessive.A	0.6064171122994653	1924.484339190177	11	0.004470588235294122	0.005330882352941174	0.005073529411764724	0.005529411764705894	0.00529411764705882	0.004957983193277312	0.004411764705882341	0.004705882352941187	0.00470588235294116	0.0055392156862745165
bivariate.discrete.chessboard.B	0.3993529411764707	1341.0142857142976	5	0.004411764705882337	0.004915966386554634	0.005073529411764696	0.0054901960784313536	0.005220588235294102	0.004957983193277303	0.004117647058823515	0.00467320261437908	0.00463235294117646	0.00551470588235296
bivariate.discrete.chessboard.A	0.14905882352941177	480.3918367347041	10	0.0042647058823529396	0.004764705882352942	0.004882352941176464	0.005441176470588234	0.00519607843137253	0.004901960784313716	0.004019607843137248	0.004607843137254893	0.004595588235294112	0.00549019607843139
bivariate.cont.chessboard.B	0.05394957983193277	149.39361702127715	7	0.004243697478991585	0.004705882352941204	0.004852941176470588	0.005441176470588216	0.005168067226890738	0.004852941176470598	0.004007352941176467	0.004537815126050414	0.004509803921568612	0.005367647058823529
noise.cont.2219	0.005714285714285695	3.9506953223765633	7	0.004176470588235286	0.004632352941176471	0.004607843137254904	0.005343137254901956	0.004941176470588269	0.004852941176470571	0.003999999999999999	0.004509803921568621	0.004411764705882362	0.005196078431372542
noise.cont.2688	0.004369747899159668	-0.6909090909090146	7	0.004117647058823551	0.004558823529411749	0.004579831932773111	0.00529411764705882	0.00492647058823531	0.004789915966386554	0.0039705882352941094	0.004411764705882364	0.004362745098039211	0.0050980392156862895
noise.cont.4022	0.004313725490196085	-0.22132796780678785	3	0.004068627450980385	0.004411764705882339	0.004362745098039228	0.005168067226890753	0.004901960784313708	0.00476470588235293	0.003941176470588234	0.004369747899159653	0.004313725490196067	0.005084033613445375
noise.cont.3601	0.00382352941176472	-1.596992481202884	4	0.004019607843137241	0.004285714285714276	0.0043529411764705725	0.004999999999999985	0.004640522875816998	0.004640522875816994	0.0039215686274509665	0.004159663865546218	0.004264705882352926	0.005058823529411768
noise.cont.5387	0.0036274509803921515	-2.7407407407408204	3	0.0038235294117646952	0.004215686274509815	0.004313725490196082	0.004705882352941174	0.0042483660130718925	0.004558823529411773	0.003865546218487391	0.004117647058823544	0.004191176470588221	0.005049019607843136
noise.cont.8911	0.003529411764705892	-3.1249999999998495	5	0.003823529411764692	0.004215686274509812	0.004117647058823515	0.004537815126050412	0.0041666666666666735	0.004509803921568612	0.003823529411764692	0.004117647058823522	0.004117647058823551	0.004999999999999997
noise.cont.3877	0.00347058823529411	-2.8174999999999852	5	0.003739495798319316	0.004007352941176469	0.004044117647058823	0.00445378151260505	0.004159663865546218	0.004485294117647057	0.0037254901960784383	0.0039705882352941094	0.0040808823529411885	0.004999999999999987
noise.cont.6776	0.0034640522875816994	-2.8086419753084493	9	0.003739495798319316	0.0039705882352941285	0.004019607843137241	0.004411764705882354	0.004117647058823543	0.004411764705882352	0.003676470588235295	0.003954248366013067	0.003933823529411755	0.004823529411764701
noise.cont.5899	0.0034313725490195957	-2.404255319148898	3	0.003627450980392155	0.003970588235294103	0.004000000000000005	0.004411764705882352	0.004117647058823537	0.004313725490196075	0.0036470588235294073	0.003897058823529398	0.0038602941176470494	0.004803921568627458
noise.cont.622	0.0031176470588235427	-4.372839506172684	5	0.003588235294117672	0.0038235294117647026	0.003999999999999985	0.00426470588235295	0.004019607843137263	0.004201680672268908	0.0036274509803921446	0.0038888888888888883	0.0038235294117647182	0.004411764705882362
noise.discrete.6412	0.003025210084033603	-4.070748299319691	7	0.0035294117647058864	0.0037700534759358213	0.003882352941176461	0.004264705882352943	0.003949579831932779	0.004191176470588231	0.0035714285714285696	0.003882352941176457	0.003790849673202613	0.004411764705882346
noise.cont.1836	0.002823529411764696	-5.371428571428438	5	0.003455882352941164	0.003676470588235309	0.0037647058823529365	0.004235294117647071	0.0036764705882352837	0.004117647058823535	0.003529411764705889	0.0038725490196078586	0.0037254901960784184	0.004338235294117639
noise.cont.9231	0.00279411764705883	-5.999999999999528	6	0.0034191176470588125	0.003676470588235281	0.0036274509803921654	0.004215686274509802	0.003602941176470581	0.004058823529411762	0.003529411764705882	0.003823529411764722	0.003676470588235281	0.004313725490196078
noise.cont.9655	0.0027647058823529404	-4.666666666666654	10	0.0034117647058823585	0.0036470588235294277	0.0035882352941176386	0.004159663865546218	0.0035714285714285587	0.004019607843137242	0.0034453781512605074	0.0038235294117647117	0.0036470588235294013	0.0043137254901960635
noise.cont.3918	0.0026470588235294134	-5.014285714285739	8	0.0034117647058823563	0.0036470588235294004	0.0035294117647058846	0.004117647058823533	0.00352941176470587	0.003991596638655467	0.003431372549019613	0.0038235294117647074	0.0036134453781512667	0.004264705882352926
noise.cont.8207	0.0026102941176470535	-5.337837837837862	8	0.003382352941176481	0.003627450980392173	0.003480392156862733	0.004117647058823515	0.00352941176470587	0.003959276018099552	0.0034117647058823455	0.0038235294117647035	0.003464052287581696	0.0042156862745098
noise.cont.6470	0.0025882352941176533	-6.554285714285614	5	0.003382352941176472	0.0035947712418300634	0.0034558823529411754	0.004117647058823515	0.0034313725490196082	0.003941176470588244	0.003382352941176464	0.0037908496732026106	0.003403361344537803	0.004117647058823525
noise.cont.5656	0.0024264705882353133	-6.138888888888767	4	0.0033529411764705785	0.0035882352941176343	0.0034313725490195957	0.003991596638655464	0.0033529411764705807	0.003823529411764719	0.0033333333333333236	0.00376470588235295	0.0033333333333333214	0.0040196078431372516
noise.discrete.9365	0.002310924369747891	-7.414965986394618	7	0.003308823529411767	0.0035294117647058946	0.0033823529411764726	0.003970588235294131	0.003319327731092438	0.0038235294117647018	0.0033193277310924647	0.003750000000000006	0.003294117647058834	0.003941176470588252
noise.cont.9353	0.0022268907563025224	-6.333333333333498	7	0.0032941176470588163	0.003529411764705892	0.003319327731092438	0.0039705882352941094	0.0032352941176470563	0.0037254901960784314	0.003308823529411768	0.003639705882352949	0.0032352941176470805	0.003921568627450985
noise.cont.8878	0.0022058823529411704	-6.599999999999966	6	0.0032720588235294126	0.003529411764705881	0.0032773109243697646	0.003823529411764729	0.0032352941176470476	0.0037165775401069565	0.003308823529411761	0.0036134453781512623	0.0032352941176470623	0.003921568627450981
noise.cont.6969	0.0022058823529411704	-7.0000000000000515	6	0.00323529411764705	0.003529411764705878	0.0032352941176470675	0.0038235294117647204	0.0032352941176470476	0.003697478991596649	0.003193277310924385	0.003578431372549007	0.0032352941176470563	0.003888888888888894
noise.cont.9428	0.0022058823529411686	-8.680000000000302	4	0.0032352941176470476	0.0034558823529411723	0.00323529411764705	0.0038235294117647126	0.003235294117647047	0.003676470588235281	0.003193277310924378	0.003566176470588242	0.003235294117647047	0.0038235294117647143
noise.cont.306	0.0022058823529411686	-8.132530120481428	2	0.003176470588235296	0.0034313725490196126	0.003186274509803915	0.003823529411764692	0.0031862745098039176	0.0036397058823529295	0.0031764705882352828	0.003529411764705897	0.0031699346405228692	0.0037745098039215757
noise.cont.3370	0.0022058823529411686	-7.551724137931239	10	0.0031764705882352876	0.0033823529411764583	0.0031764705882352828	0.003786764705882359	0.0031372549019607746	0.003566176470588231	0.003169934640522877	0.0035294117647058734	0.003137254901960783	0.0036554621848739507
noise.cont.4852	0.0021848739495798383	-8.2560646900263	7	0.0031372549019607807	0.003352941176470599	0.0031617647058823414	0.0037815126050420172	0.0031176470588235206	0.0035661764705882297	0.0031512605042016708	0.00352941176470587	0.003137254901960773	0.0036274509803921437
noise.cont.4872	0.0021764705882353083	-12.985199240986672	5	0.0030995475113122133	0.0032843137254901862	0.003117647058823536	0.0037058823529411743	0.003109243697478995	0.00352941176470589	0.0031176470588235384	0.003235294117647051	0.0031283422459893098	0.00357843137254902
noise.cont.7268	0.002176470588235304	-15.921739130432032	5	0.003088235294117639	0.003272058823529414	0.0030672268907563074	0.0036764705882352997	0.003088235294117649	0.0035294117647058864	0.0031176470588235206	0.003151260504201676	0.003125000000000022	0.0035784313725490103
noise.cont.980	0.002176470588235284	-12.125000000002407	5	0.003058823529411776	0.003235294117647054	0.003039215686274521	0.003578431372549016	0.0030882352941176442	0.0034411764705882344	0.0031176470588235184	0.003137254901960788	0.0031045751633986857	0.0035294117647058977
noise.cont.8417	0.002169117647058831	-11.237113402062793	8	0.0030588235294117536	0.0032352941176470476	0.003025210084033628	0.0035661764705882254	0.003051470588235285	0.003431372549019599	0.003109243697478992	0.0031372549019607733	0.0030672268907563187	0.003529411764705877
noise.cont.5888	0.002156862745098041	-13.856410256412122	6	0.0030542986425339345	0.003161764705882342	0.0030252100840336216	0.00352941176470589	0.003025210084033609	0.0034313725490195957	0.003088235294117647	0.0031176470588235206	0.003067226890756298	0.0035294117647058734
noise.cont.9054	0.002117647058823546	-17.325000000001022	5	0.0030514705882353	0.0031372549019607846	0.0030252100840336216	0.0035294117647058894	0.0030147058823529584	0.0034033613445378203	0.003067226890756309	0.0031092436974789962	0.003058823529411776	0.003529411764705871
noise.cont.4497	0.0021176470588235375	-22.750000000003038	5	0.0030514705882352874	0.003088235294117653	0.003025210084033615	0.0034117647058823563	0.0030147058823529306	0.0033823529411764683	0.0030588235294117727	0.003109243697478982	0.0030392156862745286	0.0034705882352941164
noise.cont.3754	0.0020588235294117753	-18.984374999997954	5	0.0030514705882352822	0.0030392156862745177	0.0029901960784313804	0.0034117647058823494	0.0029999999999999914	0.0033333333333333474	0.0030514705882352974	0.003104575163398694	0.0030147058823529306	0.0034640522875817046
noise.cont.720	0.0020588235294117588	-22.111111111117243	8	0.003039215686274499	0.002941176470588245	0.0029901960784313696	0.003403361344537803	0.002990196078431395	0.0033333333333333214	0.0030294117647058885	0.003067226890756312	0.0029999999999999983	0.003455882352941164
noise.cont.1754	0.0020261437908496664	-24.22962962962724	9	0.0029779411764706	0.002941176470588228	0.002941176470588247	0.0033333333333333513	0.0029831932773109137	0.003202614379084966	0.0029411764705882357	0.0030392156862745156	0.002941176470588264	0.0034033613445378155
noise.cont.5595	0.0020168067226890843	-33.92517006802271	7	0.0029705882352941125	0.0029084967320261446	0.002941176470588225	0.003333333333333338	0.002967914438502664	0.003176470588235316	0.002941176470588225	0.002990196078431362	0.0029411764705882435	0.003382352941176481
noise.cont.1306	0.0020098039215686206	-3.436158209808709E13	6	0.00294117647058825	0.002904411764705889	0.002941176470588214	0.003294117647058814	0.0029411764705882435	0.0031617647058823388	0.002941176470588225	0.00294117647058825	0.0029411764705882322	0.0033529411764705794
noise.cont.4642	0.001960784313725502	-29.47368421053023	9	0.002941176470588236	0.002867647058823519	0.002916666666666668	0.003235294117647075	0.0029411764705882435	0.0031372549019607933	0.002899159663865545	0.002941176470588225	0.002941176470588225	0.0033333333333333288
noise.cont.1370	0.0019327731092436907	-24.03409090910299	7	0.002941176470588225	0.0028431372549019506	0.0028823529411764804	0.003235294117647047	0.0029411764705882357	0.003117647058823534	0.002875816993464063	0.002899159663865536	0.0028921568627450988	0.0033006535947712337
noise.cont.9245	0.0017352941176470636	-31.46666666666716	10	0.00288235294117646	0.0028308823529411874	0.002867647058823544	0.003235294117647047	0.002941176470588232	0.003117647058823527	0.0028676470588235277	0.002892156862745097	0.0028921568627450875	0.003284313725490203
noise.cont.2387	0.0017016806722689088	-22.94520547945855	14	0.002823529411764718	0.002823529411764718	0.0028571428571428567	0.0031985294117647194	0.002941176470588225	0.00310457516339868	0.0028235294117647117	0.0028571428571428532	0.0028921568627450875	0.0032679738562091426
noise.cont.8227	0.0016911764705882307	-26.000000000005418	8	0.0028151260504201644	0.002823529411764696	0.0028235294117647117	0.003176470588235305	0.002941176470588225	0.0030882352941176507	0.0027941176470588384	0.0028529411764705815	0.002794117647058826	0.0032352941176470515
noise.discrete.1251	0.0016911764705882294	-32.49999999999734	4	0.0027941176470588384	0.0028151260504201583	0.002815126050420166	0.003176470588235285	0.002911764705882346	0.003058823529411769	0.0027941176470588323	0.002843137254901968	0.0027941176470588137	0.00323529411764705
noise.cont.2273	0.0016470588235294192	-21.727272727270492	5	0.0027941176470588245	0.0027941176470588137	0.0027647058823529313	0.003169934640522865	0.002892156862745101	0.0030588235294117653	0.0027941176470588163	0.0028431372549019545	0.0027647058823529356	0.003176470588235285
noise.cont.7717	0.0016013071895424817	-23.650793650790416	9	0.0027941176470588245	0.0027941176470588137	0.0027647058823529313	0.0031512605042016855	0.002867647058823536	0.0030588235294117536	0.00277777777777778	0.0028431372549019506	0.002764705882352934	0.003176470588235285
noise.cont.8585	0.001580882352941171	-23.67045454545148	8	0.00277777777777777	0.0027450980392156803	0.0027450980392156768	0.003137254901960788	0.002867647058823519	0.0030392156862745177	0.0027647058823529426	0.002815126050420174	0.0027573529411764885	0.0031617647058823665
noise.cont.4683	0.0015546218487394903	-17.23152709359811	7	0.0027647058823529356	0.00272058823529413	0.0026960784313725503	0.0031372549019607772	0.002867647058823519	0.0030294117647058916	0.0027647058823529356	0.0027941176470588267	0.002745098039215695	0.003161764705882342
noise.cont.1731	0.001544117647058818	-15.90909090908942	8	0.0027205882352941357	0.002720588235294116	0.0026890756302520927	0.0031092436974789962	0.0028431372549019875	0.0030252100840336043	0.002745098039215691	0.002794117647058822	0.002689075630252112	0.0031176470588235227
noise.cont.4244	0.0015196078431372682	-15.302593659942067	6	0.0027205882352941274	0.0026960784313725503	0.002679738562091495	0.00308823529411764	0.0028431372549019506	0.0030147058823529584	0.0027450980392156803	0.0027731092436974803	0.0026764705882352966	0.003109243697478992
noise.cont.8595	0.0015126050420168015	-14.023809523809753	7	0.002720588235294119	0.002696078431372541	0.002647058823529419	0.0029779411764705973	0.0028235294117647117	0.0030147058823529306	0.0027352941176470567	0.0027647058823529534	0.0026470588235294134	0.003109243697478982
noise.cont.7011	0.0014705882352941235	-13.307692307693053	8	0.002705882352941189	0.002647058823529433	0.002647058823529418	0.0029411764705882327	0.002810457516339879	0.003000000000000014	0.0027205882352941357	0.0027647058823529404	0.0026470588235294025	0.0031045751633986905
noise.cont.5590	0.001470588235294119	-14.714285714287467	5	0.002705882352941182	0.0026470588235294134	0.002647058823529411	0.002941176470588225	0.0028104575163398707	0.003000000000000007	0.002720588235294108	0.002745098039215675	0.0026102941176470553	0.003088235294117639
noise.cont.308	0.0014705882352941124	-12.578947368421185	8	0.002683823529411765	0.0026470588235294125	0.002598039215686284	0.0028529411764705893	0.0027941176470588232	0.003000000000000005	0.002720588235294108	0.0027310924369747898	0.0026050420168067137	0.003088235294117636
noise.cont.8570	0.0014705882352941124	-11.5961538461546	7	0.002683823529411762	0.0026470588235294025	0.0025816993464052307	0.002823529411764718	0.0027941176470588137	0.0029411764705882543	0.0026797385620915062	0.002720588235294133	0.0025735294117647106	0.0030588235294117623
noise.cont.609	0.0014285714285714234	-13.450101832991743	7	0.002647058823529419	0.0026176470588235427	0.0025735294117646993	0.0027941176470588414	0.0027731092436974916	0.002941176470588229	0.0026737967914438475	0.002705882352941179	0.0025490196078431283	0.0030588235294117584
noise.cont.7077	0.0014117647058823487	-12.039999999999486	15	0.0026470588235294173	0.0026143790849673222	0.0025630252100840244	0.002794117647058833	0.0027731092436974803	0.0029411764705882283	0.0026470588235294225	0.0027058823529411756	0.002529411764705878	0.003051470588235297
noise.cont.1325	0.001386554621848744	-13.201438848921082	7	0.002647058823529412	0.002598039215686265	0.0025401069518716578	0.0027647058823529512	0.0027731092436974756	0.002941176470588225	0.00264705882352941	0.002696078431372558	0.0025210084033613356	0.0030392156862745112
noise.discrete.1999	0.001363636363636364	-16.676136363637465	11	0.0026470588235294108	0.002588235294117651	0.002536764705882355	0.0027450980392156768	0.0027450980392156803	0.0028991596638655486	0.0026102941176470718	0.0026960784313725546	0.002500000000000013	0.0030147058823529554
noise.cont.8613	0.0013529411764705856	-17.60986547085112	5	0.0026470588235294073	0.0025882352941176377	0.0025294117647058733	0.002689075630252107	0.002720588235294125	0.00285714285714285	0.0025935828877005347	0.0026838235294117676	0.0025	0.003000000000000005
noise.cont.5329	0.0013445378151260457	-22.142857142854613	7	0.002647058823529406	0.0025882352941176377	0.0025000000000000096	0.0026764705882353	0.0027058823529411812	0.0028431372549019805	0.002588235294117657	0.0026470588235294225	0.002463235294117662	0.002999999999999996
noise.cont.8082	0.0013235294117647123	-32.326530612241655	6	0.0026470588235294025	0.0025735294117647093	0.002500000000000004	0.0026470588235294247	0.0026470588235294207	0.0027941176470588323	0.0025816993464052207	0.00258823529411766	0.0024369747899159627	0.0029999999999999936
noise.cont.4476	0.0013235294117647067	-20.189814814814138	6	0.0026102941176470535	0.0025735294117646967	0.002499999999999991	0.0026470588235294177	0.00264705882352941	0.0027941176470588267	0.0025210084033613464	0.0025816993464052324	0.0024264705882352856	0.0029705882352941146
noise.cont.4474	0.001323529411764701	-20.027777777776038	6	0.002598039215686284	0.0025630252100840405	0.0024836601307189577	0.0026470588235294173	0.0026470588235294086	0.0027647058823529313	0.0025210084033613386	0.0025735294117646967	0.0024264705882352856	0.002941176470588225
noise.cont.9523	0.001310160427807485	-22.23863636363692	11	0.0025735294117646967	0.0025367647058823564	0.002478991596638658	0.002647058823529411	0.00254901960784313	0.002720588235294111	0.0025210084033613356	0.002563025210084031	0.0024264705882352856	0.0028921568627450892
noise.discrete.7865	0.0013025210084033568	-20.698841698843513	7	0.002563025210084039	0.002529411764705889	0.002470588235294109	0.00264705882352941	0.0025490196078431283	0.002696078431372545	0.0025163398692810554	0.0025588235294117644	0.0024183006535947738	0.00288235294117646
noise.cont.3369	0.0012605042016806678	-28.761904761908756	7	0.0025490196078431404	0.002500000000000016	0.002470588235294107	0.00264705882352941	0.002529411764705871	0.002689075630252107	0.0025000000000000096	0.00252941176470588	0.0024117647058823446	0.0028431372549019545
noise.cont.7349	0.001249999999999997	-25.714285714285865	8	0.0025490196078431283	0.0025000000000000105	0.002450980392156854	0.00264705882352941	0.0024999999999999983	0.00264705882352943	0.0025000000000000066	0.0025210084033613356	0.002389705882352949	0.0028431372549019528
noise.cont.6642	0.001249999999999997	-19.21880064829533	8	0.0025294117647058955	0.002500000000000005	0.0024064171122994567	0.002647058823529402	0.0024789915966386593	0.0026470588235294155	0.0025000000000000022	0.0025163398692810567	0.0023856209150326774	0.0028431372549019528
noise.cont.2002	0.0012352941176470677	-18.812499999995254	5	0.002529411764705878	0.0024999999999999953	0.0023949579831932704	0.0026102941176470553	0.002470588235294109	0.0026470588235294108	0.0024999999999999996	0.0025000000000000187	0.00238235294117648	0.002815126050420174
noise.discrete.1906	0.0012352941176470655	-17.837037037036946	5	0.0025210084033613607	0.0024632352941176506	0.002389705882352934	0.002605042016806726	0.002463235294117662	0.002610294117647065	0.0024999999999999966	0.0024999999999999966	0.0023529411764706	0.002815126050420166
noise.cont.7571	0.0012184873949579787	-15.612903225808003	7	0.0025163398692810406	0.0024264705882353133	0.0023897058823529327	0.0026050420168067137	0.0024632352941176524	0.0026050420168067354	0.0024999999999999914	0.0024789915966386593	0.002352941176470591	0.002794117647058847
noise.cont.1395	0.0012009803921568677	-15.041208791209776	12	0.0024836601307189504	0.0024183006535947738	0.00235294117647058	0.0025882352941176377	0.0024632352941176454	0.002598039215686271	0.002478991596638656	0.0024789915966386545	0.0023529411764705885	0.0027807486631016144
noise.cont.8523	0.0011764705882353098	-15.909090909093193	5	0.002478991596638656	0.0024117647058823754	0.00235294117647058	0.002573529411764704	0.0024509803921568614	0.0025882352941176577	0.002463235294117641	0.002463235294117641	0.002303921568627443	0.0027647058823529313
noise.cont.8473	0.00117647058823529	-21.666666666666245	6	0.0024509803921568614	0.0024117647058823446	0.00235294117647058	0.002529411764705878	0.002450980392156858	0.002563025210084045	0.002450980392156895	0.0024598930481283467	0.0022941176470588354	0.0027573529411764747
noise.cont.7849	0.00117647058823529	-18.245614035087474	6	0.0024117647058823624	0.00238970588235293	0.00235294117647058	0.0025294117647058733	0.002450980392156854	0.0025630252100840405	0.002450980392156867	0.0024509803921568744	0.002294117647058833	0.002745098039215675
noise.cont.3665	0.00117647058823529	-18.252100840335736	4	0.0024117647058823567	0.002385620915032682	0.0023235294117646987	0.0025245098039215746	0.002450980392156854	0.0025630252100840244	0.002450980392156854	0.0024369747899159752	0.002294117647058831	0.002735294117647057
noise.cont.5536	0.00117647058823529	-17.000000000001112	6	0.0024117647058823446	0.0023529411764706075	0.002303921568627461	0.0025000000000000096	0.0024264705882352925	0.0025490196078431487	0.0024369747899159705	0.0024264705882352856	0.0022941176470588224	0.0027310924369747932
noise.cont.190	0.0011497326203208516	-17.363636363638218	11	0.0024019607843137228	0.002352941176470596	0.002303921568627443	0.0024999999999999914	0.002426470588235288	0.0025294117647058733	0.0024264705882352856	0.0024264705882352856	0.0022941176470588198	0.002705882352941169
noise.discrete.76	0.0011437908496731986	-16.55319148936231	9	0.002394957983193283	0.002316176470588237	0.0022794117647058796	0.002483660130718954	0.0024264705882352856	0.0024999999999999914	0.002418300653594765	0.0024117647058823554	0.002254901960784306	0.002705882352941167
noise.cont.5876	0.0011397058823529426	-18.654639175253497	8	0.002389705882352941	0.0023161764705882312	0.002268907563025202	0.002470588235294131	0.0024264705882352856	0.002478991596638661	0.0024117647058823446	0.0024019607843137228	0.002235294117647051	0.002696078431372558
noise.cont.4323	0.001117647058823532	-23.151898734170462	10	0.002385620915032674	0.002303921568627461	0.0022268907563025133	0.0024369747899159835	0.0024117647058823446	0.002470588235294131	0.002394957983193281	0.0024019607843137206	0.0022222222222222266	0.002689075630252096
noise.cont.7199	0.0010882352941176431	-19.010526315788205	10	0.002352941176470605	0.002303921568627443	0.0022268907563025115	0.0024369747899159687	0.002352941176470591	0.0024705882352941176	0.00239495798319328	0.0023529411764705937	0.0022222222222222244	0.002647058823529414
noise.cont.8564	0.0010784313725490343	-16.177777777779227	6	0.002352941176470602	0.0022794117647058883	0.0022222222222222244	0.0024369747899159575	0.0023529411764705854	0.002450980392156871	0.0023897058823529453	0.0023529411764705915	0.002205882352941171	0.0026470588235294043
noise.cont.7747	0.0010784313725490326	-19.259259259260254	6	0.0023529411764705854	0.0022794117647058866	0.0022058823529411743	0.0024117647058823485	0.00235294117647058	0.0024411764705882266	0.0023529411764706	0.002352941176470582	0.00218487394957984	0.002610294117647062
noise.cont.7925	0.001066176470588244	-19.444444444444247	8	0.00235294117647058	0.0022794117647058744	0.0021895424836601302	0.0024117647058823446	0.00235294117647058	0.002426470588235294	0.0023529411764705976	0.00235294117647058	0.002156862745098061	0.0025882352941176377
noise.cont.4434	0.001053921568627452	-19.629629629629935	12	0.002320261437908496	0.0022794117647058744	0.0021848739495798322	0.002411764705882342	0.00235294117647058	0.0024264705882352856	0.0023529411764705967	0.00235294117647058	0.0021568627450980413	0.002573529411764708
noise.cont.6083	0.0010504201680672342	-20.690476190473497	7	0.0023161764705882408	0.0022794117647058744	0.0021691176470588157	0.0024019607843137336	0.002320261437908508	0.0024064171122994667	0.0023529411764705932	0.002303921568627456	0.002142857142857148	0.0025735294117646998
noise.cont.4197	0.001042780748663107	-18.801652892565897	11	0.002316176470588234	0.002268907563025221	0.0021568627450980313	0.002401960784313732	0.0023039215686274633	0.0024019607843137167	0.00235294117647058	0.002303921568627449	0.0021428571428571434	0.002549019607843133
noise.discrete.1755	0.0010294117647058972	-19.277777777779328	6	0.002316176470588227	0.0022689075630252134	0.0021390374331550738	0.0024019607843137245	0.002294117647058833	0.0023897058823529383	0.00235294117647058	0.0022941176470588154	0.002132352941176463	0.0025367647058823577
noise.cont.5062	0.001029411764705887	-18.76363636363874	12	0.0022941176470588375	0.0022549019607843225	0.002124183006535949	0.002401960784313715	0.002279411764705902	0.0023897058823529327	0.002320261437908496	0.0022941176470588154	0.0021241830065359462	0.0025294117647058733
noise.cont.7130	0.0010084033613445343	-18.85714285714249	7	0.0022941176470588224	0.0022459893048128354	0.002117647058823524	0.002394957983193277	0.002279411764705892	0.0023823529411764743	0.002310924369747891	0.0022941176470588154	0.0021176470588235375	0.0025210084033613516
noise.cont.2290	0.0010084033613445343	-21.676587301584703	7	0.002287581699346399	0.002235294117647073	0.002112299465240655	0.00238235294117647	0.0022794117647058783	0.002352941176470617	0.0022941176470588375	0.002279411764705891	0.002117647058823526	0.002521008403361337
noise.cont.3743	0.0010000000000000187	-21.749999999999016	5	0.0022794117647058796	0.002235294117647062	0.0021078431372549018	0.0023529411764705945	0.0022689075630252112	0.0023529411764706075	0.0022941176470588154	0.002279411764705877	0.0021078431372549074	0.0025210084033613356
noise.cont.2366	0.0010000000000000087	-21.66071428571426	10	0.0022794117647058757	0.002235294117647051	0.0021008403361344463	0.00235294117647058	0.002254901960784317	0.0023529411764706075	0.0022689075630252177	0.0022794117647058744	0.0021078431372549	0.002500000000000004
noise.cont.4584	9.999999999999963E-4	-19.20000000000073	10	0.0022426470588235354	0.002222222222222219	0.0020980392156862773	0.00235294117647058	0.002254901960784306	0.002352941176470597	0.002268907563025202	0.002254901960784306	0.0021008403361344606	0.0024999999999999996
noise.cont.5826	9.999999999999963E-4	-17.066666666668443	10	0.0022352941176470554	0.002205882352941184	0.0020588235294117688	0.00235294117647058	0.002254901960784306	0.0023529411764705945	0.0022549019607843186	0.002254901960784306	0.002091503267973862	0.002470588235294129
noise.cont.3002	9.999999999999963E-4	-16.98333333333452	10	0.002235294117647051	0.002205882352941178	0.002058823529411759	0.00235294117647058	0.002254901960784306	0.0023529411764705932	0.0022426470588235324	0.0022549019607843055	0.002058823529411773	0.002470588235294109
noise.cont.5842	9.893048128342301E-4	-16.945454545454968	11	0.0022303921568627527	0.002205882352941173	0.0020588235294117575	0.00235294117647058	0.002235294117647062	0.00235294117647058	0.002235294117647052	0.0022352941176470554	0.0020588235294117705	0.0024509803921568597
noise.cont.9913	9.89304812834221E-4	-25.151515151515195	11	0.002222222222222217	0.0022058823529411686	0.0020168067226890717	0.002352941176470579	0.002222222222222218	0.002303921568627443	0.0022222222222222205	0.0022058823529411825	0.002058823529411761	0.0024509803921568558
noise.cont.9119	9.705882352941152E-4	-20.159999999995502	10	0.0022058823529411834	0.0022058823529411686	0.0020168067226890686	0.0023529411764705763	0.0021568627450980313	0.002279411764705902	0.0022058823529411855	0.0022058823529411725	0.002058823529411759	0.002436974789915956
noise.cont.139	9.453781512605016E-4	-19.999999999996312	14	0.0022058823529411777	0.002184873949579837	0.002009803921568624	0.002310924369747907	0.002142857142857135	0.0022689075630252255	0.002205882352941178	0.0022058823529411686	0.0020588235294117575	0.002426470588235295
noise.cont.9620	9.41176470588232E-4	-18.369230769232114	10	0.002205882352941166	0.002169117647058827	0.0019852941176470517	0.002310924369747907	0.0021323529411764767	0.0022689075630252056	0.0022058823529411743	0.002184873949579824	0.0020588235294117575	0.0024264705882352856
noise.cont.9533	9.358288770053443E-4	-17.71730594986517	11	0.00218487394957984	0.0021568627450980465	0.001974789915966384	0.002310924369747894	0.0021241830065359514	0.0022647058823529365	0.0021848739495798353	0.0021764705882352862	0.0020588235294117575	0.0024117647058823554
noise.discrete.4061	9.313725490196046E-4	-18.48051948051947	6	0.0021848739495798275	0.002142857142857135	0.0019747899159663794	0.0022941176470588224	0.0021078431372548944	0.0022426470588235215	0.0021848739495798288	0.0021691176470588144	0.0020588235294117575	0.0024117647058823533
noise.cont.4478	9.243697478991563E-4	-18.242187499998725	7	0.0021691176470588157	0.0021323529411764767	0.00197058823529412	0.0022941176470588176	0.002100840336134454	0.002235294117647069	0.002176470588235289	0.0021323529411764767	0.0020588235294117575	0.0024019607843137336
noise.cont.1818	9.06862745098037E-4	-19.10810810810591	12	0.0021568627450980443	0.0021241830065359575	0.0019607843137254815	0.0022941176470588176	0.002100840336134453	0.002235294117647062	0.0021691176470588296	0.0021323529411764724	0.0020588235294117575	0.002401960784313728
noise.cont.164	8.823529411764817E-4	-18.727272727271366	7	0.002156862745098039	0.0021176470588235388	0.0019485294117647142	0.0022794117647058965	0.0020955882352941117	0.0022352941176470575	0.0021568627450980443	0.002132352941176466	0.0020588235294117575	0.002394957983193275
noise.discrete.2847	8.823529411764785E-4	-14.714285714286762	7	0.0021568627450980313	0.0021176470588235353	0.0019485294117647114	0.0022549019607843155	0.0020588235294117757	0.0022352941176470554	0.0021568627450980365	0.0021323529411764646	0.0020588235294117544	0.002385620915032671
noise.cont.3730	8.82352941176475E-4	-14.874999999999433	9	0.0021323529411764685	0.0021122994652406383	0.001941176470588246	0.0022549019607843094	0.0020588235294117644	0.002226890756302526	0.0021470588235294186	0.002132352941176463	0.002022058823529409	0.0023856209150326705
noise.cont.7071	8.82352941176469E-4	-16.999999999997478	7	0.002132352941176463	0.0021078431372549148	0.001928104575163404	0.002254901960784306	0.0020588235294117635	0.0022058823529411964	0.00214285714285714	0.002132352941176463	0.0020168067226890734	0.002352941176470591
noise.cont.9037	8.823529411764675E-4	-16.799999999997677	6	0.0021176470588235305	0.0020955882352941104	0.0019251336898395725	0.002254901960784306	0.0020588235294117575	0.0022058823529411908	0.0021323529411764754	0.002117647058823542	0.0020168067226890717	0.002352941176470587
noise.cont.9572	8.823529411764675E-4	-13.999999999999641	4	0.002117647058823529	0.002058823529411774	0.0019117647058823572	0.002235294117647082	0.002029411764705883	0.0022058823529411825	0.0021241830065359514	0.0021176470588235375	0.002000000000000011	0.00235294117647058
noise.cont.867	8.823529411764675E-4	-13.21052631578771	10	0.0021078431372548944	0.002058823529411773	0.001911764705882349	0.0022058823529411873	0.0020168067226890686	0.0022058823529411743	0.002117647058823522	0.002117647058823522	0.0020000000000000083	0.0023284313725490165
noise.cont.951	8.556149732620331E-4	-13.04545454545519	11	0.0020882352941176507	0.0020588235294117688	0.001911764705882346	0.0022058823529411825	0.002009803921568639	0.0022058823529411686	0.0021078431372548944	0.0021078431372548944	0.0019957983193277257	0.002320261437908501
noise.cont.3475	8.529411764705962E-4	-14.220976491862338	10	0.0020814479638009047	0.002058823529411767	0.001895424836601303	0.0022058823529411743	0.002009803921568624	0.0022058823529411686	0.0020955882352941086	0.0021008403361344463	0.001993464052287575	0.002320261437908492
noise.cont.9246	8.529411764705919E-4	-19.679999999996966	10	0.0020588235294117675	0.0020588235294117666	0.0018907563025210175	0.0022058823529411704	0.0020098039215686206	0.0022058823529411686	0.0020588235294117813	0.002091503267973864	0.0019852941176470656	0.00231617647058823
noise.cont.8544	8.529411764705852E-4	-19.67999999999802	10	0.0020588235294117575	0.0020588235294117575	0.001890756302521011	0.0021895424836601276	0.0020098039215686206	0.0021895424836601354	0.0020588235294117796	0.0020915032679738586	0.00198529411764706	0.002316176470588227
noise.cont.6662	8.49673202614376E-4	-19.733333333330815	9	0.002032085561497328	0.0020588235294117575	0.0018907563025210017	0.0021895424836601268	0.0020098039215686206	0.00218487394957984	0.002058823529411774	0.0020915032679738577	0.0019852941176470517	0.002310924369747913
noise.cont.2884	8.403361344537785E-4	-20.56500000000286	7	0.002022058823529407	0.0020000000000000083	0.001882352941176464	0.00218487394957984	0.0019999999999999905	0.0021848739495798275	0.0020588235294117675	0.002091503267973849	0.0019747899159663954	0.002303921568627454
noise.cont.6453	8.169934640522847E-4	-18.15151515151669	9	0.0020220588235294046	0.0019852941176470517	0.001882352941176464	0.002184873949579824	0.0019852941176470547	0.002184873949579824	0.002058823529411763	0.00208823529411765	0.0019607843137255	0.0022941176470588154
noise.cont.970	8.088235294117701E-4	-16.553054662378972	12	0.0020168067226890825	0.001978609625668442	0.001882352941176464	0.002176470588235313	0.0019852941176470517	0.0021568627450980443	0.002058823529411759	0.0020882352941176442	0.0019485294117647114	0.0022941176470588154
noise.discrete.4546	8.088235294117619E-4	-20.476190476189366	12	0.0020098039215686206	0.0019747899159663954	0.00187500000000001	0.0021691176470588157	0.001978609625668445	0.0021568627450980313	0.0020168067226890747	0.0020588235294117753	0.0019411764705882396	0.0022941176470588154
noise.discrete.2751	8.021390374331573E-4	-20.506493506493225	11	0.002000000000000004	0.001974789915966392	0.001875000000000003	0.0021691176470588157	0.0019747899159663794	0.002147058823529423	0.0020168067226890686	0.002058823529411759	0.0019411764705882285	0.002287581699346397
noise.cont.2452	8.021390374331523E-4	-19.62909090909195	11	0.0019999999999999927	0.0019607843137254954	0.0018716577540106986	0.0021568627450980313	0.001970588235294122	0.002142857142857137	0.0020098039215686206	0.002058823529411759	0.001936274509803923	0.0022794117647058935
noise.discrete.5821	7.941176470588295E-4	-19.13333333333408	10	0.0019999999999999927	0.0019607843137254945	0.0018627450980392092	0.0021568627450980313	0.001960784313725502	0.002132352941176488	0.002000000000000013	0.0020588235294117575	0.0019327731092436955	0.0022794117647058853
noise.cont.9720	7.94117647058823E-4	-19.0814814814816	10	0.0019934640522875882	0.0019411764705882285	0.0018487394957983256	0.0021568627450980313	0.001960784313725502	0.002132352941176466	0.0019999999999999974	0.0020588235294117575	0.0019327731092436907	0.0022689075630252034
noise.cont.3302	7.941176470588207E-4	-18.802919708029044	10	0.0019934640522875783	0.0019327731092436923	0.0018487394957983144	0.002142857142857137	0.001960784313725502	0.002132352941176463	0.0019999999999999927	0.0020588235294117575	0.0019327731092436907	0.0022549019607843155
noise.discrete.2236	7.843137254902062E-4	-16.746724890827803	6	0.0019852941176470794	0.0019117647058823591	0.001838235294117649	0.0021323529411764646	0.001960784313725489	0.0021323529411764576	0.001993464052287582	0.0020320855614973207	0.0019230769230769217	0.002254901960784313
noise.cont.3496	7.843137254902057E-4	-16.580645161292786	9	0.001974789915966381	0.0019117647058823552	0.0018382352941176462	0.002124183006535942	0.0019607843137254832	0.0021241830065359423	0.0019934640522875783	0.00202614379084968	0.001911764705882365	0.002235294117647062
noise.cont.2853	7.843137254901932E-4	-17.512820512819882	6	0.0019747899159663794	0.0019117647058823463	0.0018382352941176405	0.0021176470588235444	0.0019607843137254832	0.0021176470588235444	0.0019852941176470573	0.002022058823529406	0.001911764705882346	0.002205882352941185
noise.discrete.1602	7.843137254901932E-4	-17.117647058824993	6	0.0019607843137254832	0.001911764705882346	0.0018382352941176405	0.0021176470588235353	0.0019411764705882305	0.002117647058823522	0.0019852941176470517	0.002016806722689078	0.0018954248366013127	0.00220588235294118
noise.cont.8991	7.72058823529409E-4	-16.731707317073127	8	0.0019607843137254832	0.001911764705882346	0.0018235294117646995	0.002117647058823533	0.0019411764705882305	0.002107843137254917	0.0019852941176470517	0.0020168067226890747	0.0018907563025210017	0.0022058823529411725
noise.cont.3156	7.692307692307664E-4	-16.10859728506844	13	0.0019607843137254832	0.001911764705882346	0.0018235294117646995	0.002117647058823522	0.0019327731092437066	0.002107843137254913	0.0019747899159663876	0.002009803921568639	0.0018750000000000058	0.0022058823529411686
noise.discrete.8689	7.563025210084007E-4	-14.597173144877026	7	0.001948529411764699	0.0018954248366013127	0.0018235294117646995	0.002112299465240634	0.0019327731092437066	0.0021008403361344624	0.001974789915966386	0.0019999999999999927	0.001862745098039211	0.0022058823529411686
noise.cont.5178	7.516339869281081E-4	-14.043478260869959	9	0.0019411764705882285	0.0018954248366013018	0.001801470588235303	0.0021078431372548983	0.0019281045751633945	0.0021008403361344494	0.00197478991596638	0.0019999999999999927	0.0018487394957983176	0.00218954248366014
noise.discrete.5982	7.516339869281056E-4	-14.425216947421973	9	0.0019411764705882261	0.0018907563025210032	0.001801470588235296	0.0021078431372548944	0.0019117647058823587	0.0021008403361344463	0.001960784313725489	0.0019999999999999927	0.0018449197860962501	0.0021764705882353083
noise.cont.4673	7.466063348416264E-4	-15.384326200117009	13	0.0019327731092437016	0.0018907563025210017	0.001801470588235285	0.0020955882352941295	0.0019117647058823552	0.002091503267973851	0.0019485294117647044	0.0019934640522875843	0.0018382352941176626	0.0021764705882352997
noise.cont.5125	7.352941176470562E-4	-15.371727748692905	8	0.0019281045751633945	0.0018750000000000114	0.0017941176470588182	0.0020588235294117826	0.001911764705882348	0.0020882352941176538	0.0019411764705882285	0.001985294117647074	0.0018382352941176433	0.0021764705882352862
noise.cont.4598	7.239819004524861E-4	-16.296703296701423	13	0.0019117647058823684	0.0018627450980392276	0.0017892156862745034	0.002058823529411773	0.0019117647058823476	0.0020588235294117796	0.0019327731092437096	0.001985294117647071	0.0018382352941176405	0.002176470588235284
noise.cont.9461	7.21925133689837E-4	-14.811753902662597	11	0.0019117647058823628	0.0018627450980392222	0.0017647058823529497	0.0020588235294117653	0.0018983957219251362	0.002058823529411773	0.0019281045751633945	0.0019852941176470686	0.0018235294117647106	0.0021568627450980465
noise.cont.823	7.189542483660104E-4	-15.77160493827118	9	0.0019117647058823572	0.0018627450980392129	0.0017647058823529432	0.002058823529411761	0.0018907563025210002	0.0020588235294117722	0.0019117647058823684	0.001974789915966386	0.0018235294117646995	0.0021323529411764798
noise.cont.4129	7.189542483660104E-4	-16.222222222220882	9	0.0019117647058823546	0.001852941176470594	0.001764705882352935	0.0020588235294117575	0.001882352941176474	0.0020588235294117705	0.001911764705882364	0.0019411764705882441	0.0018235294117646995	0.0021323529411764767
noise.cont.7882	7.05882352941174E-4	-16.400000000000148	10	0.0019117647058823502	0.0018529411764705885	0.001764705882352935	0.0020588235294117575	0.0018750000000000045	0.002058823529411764	0.001911764705882348	0.0019411764705882285	0.0018235294117646995	0.002132352941176467
noise.discrete.7238	7.05882352941174E-4	-14.717948717949398	10	0.001911764705882346	0.0018529411764705872	0.001764705882352935	0.0020588235294117575	0.001875000000000003	0.0020588235294117575	0.0019117647058823476	0.0019411764705882285	0.001806722689075627	0.00212418300653595
noise.cont.5442	6.862745098039192E-4	-12.765957446809878	6	0.001911764705882346	0.0018300653594771313	0.001764705882352935	0.0020588235294117575	0.0018627450980392092	0.002058823529411752	0.001911764705882346	0.0019411764705882285	0.0018014705882352946	0.002117647058823522
noise.cont.7985	6.862745098039192E-4	-12.463768115941729	12	0.0018907563025210143	0.0018235294117647128	0.0017647058823529347	0.002022058823529424	0.0018487394957983207	0.002029411764705883	0.0018907563025210208	0.0019327731092437016	0.001764705882352946	0.002117647058823522
noise.discrete.2798	6.722689075630387E-4	-13.141868512110307	7	0.0018716577540106917	0.0018137254901960719	0.0017401960784313795	0.0020168067226890686	0.001848739495798316	0.0020220588235294185	0.0018907563025210127	0.001911764705882349	0.0017647058823529445	0.0021078431372548983
noise.cont.527	6.722689075630228E-4	-14.947368421052772	7	0.001848739495798327	0.0018067226890756333	0.001735294117647056	0.0020053475935828905	0.0018487394957983126	0.0020168067226890843	0.001882352941176464	0.001911764705882346	0.00176470588235294	0.0021078431372548944
noise.cont.6022	6.722689075630228E-4	-15.387755102041323	7	0.0018382352941176462	0.001801470588235296	0.0017320261437908436	0.001974789915966383	0.0018382352941176462	0.0020168067226890843	0.001882352941176464	0.001895424836601308	0.001764705882352937	0.002100840336134459
noise.cont.9175	6.722689075630164E-4	-15.671814671814735	7	0.0018382352941176405	0.0017973856209150363	0.0017279411764705918	0.0019747899159663794	0.0018382352941176405	0.0020168067226890747	0.0018750000000000043	0.0018954248366013003	0.001764705882352935	0.0021008403361344463
noise.cont.1111	6.617647058823506E-4	-16.166666666665563	8	0.0018300653594771274	0.0017892156862745108	0.001722689075630262	0.0019683257918551985	0.0018382352941176405	0.002009803921568646	0.0018627450980392276	0.0018823529411764774	0.001764705882352935	0.002091503267973849
noise.cont.7975	6.561085972850655E-4	-15.13461538461537	13	0.0018137254901960831	0.0017647058823529473	0.0017226890756302476	0.001960784313725502	0.0018235294117647017	0.0020098039215686258	0.00186274509803922	0.0018823529411764663	0.001764705882352935	0.0020814479638008995
noise.discrete.3844	6.417112299465218E-4	-15.82352941176485	11	0.001813725490196074	0.001764705882352947	0.0017226890756302461	0.001960784313725487	0.0018181818181818197	0.002000000000000004	0.0018627450980392129	0.001882352941176464	0.001764705882352935	0.00205882352941176
noise.cont.9778	6.27450980392162E-4	-16.011764705881944	15	0.001813725490196074	0.0017647058823529395	0.0017156862745097978	0.0019411764705882285	0.0018181818181818197	0.0019999999999999974	0.0018627450980392092	0.001882352941176464	0.001764705882352935	0.0020588235294117575
noise.cont.6068	6.249999999999977E-4	-14.876146788991367	8	0.001813725490196074	0.001764705882352935	0.001711229946524069	0.0019411764705882285	0.001794117647058825	0.0019999999999999953	0.0018449197860962512	0.001875000000000003	0.0017320261437908523	0.0020588235294117575
noise.cont.3894	6.249999999999977E-4	-15.473684210523773	8	0.0018137254901960719	0.001764705882352935	0.0017112299465240682	0.0019327731092437066	0.0017647058823529497	0.0019999999999999927	0.0018382352941176683	0.0018627450980392276	0.0017320261437908436	0.002009803921568633
noise.cont.4932	6.249999999999977E-4	-13.17919075144633	8	0.001806722689075627	0.0017352941176470682	0.0017058823529411838	0.0019327731092436955	0.0017647058823529477	0.001993464052287583	0.0018382352941176475	0.0018627450980392155	0.0017279411764705931	0.0020098039215686284
noise.discrete.3121	6.209150326797364E-4	-14.7323232323245	9	0.0018014705882352946	0.0017352941176470647	0.0017058823529411682	0.0019327731092436923	0.0017647058823529473	0.001993464052287577	0.0018235294117646995	0.0018487394957983126	0.0017279411764705905	0.0019852941176470547
noise.cont.8130	6.176470588235272E-4	-15.68281938325929	10	0.0017914438502673836	0.001735294117647055	0.0016993464052287644	0.0019327731092436907	0.0017647058823529436	0.0019852941176470547	0.0018235294117646995	0.0018382352941176405	0.0017279411764705836	0.0019852941176470517
noise.cont.9059	5.882352941176561E-4	-18.194945848372644	9	0.001764705882352957	0.001727941176470582	0.0016911764705882543	0.001932773109243689	0.0017647058823529378	0.001960784313725502	0.0018181818181818216	0.0018382352941176405	0.001722689075630257	0.001974789915966383
noise.cont.3972	5.882352941176474E-4	-17.149999999999316	9	0.0017647058823529536	0.0017226890756302602	0.0016911764705882294	0.0019117647058823739	0.001764705882352935	0.0019607843137255	0.001813725490196074	0.0018300653594771335	0.0017156862745097978	0.0019747899159663794
noise.discrete.3858	5.88235294117645E-4	-17.999999999995914	7	0.0017647058823529508	0.0017226890756302461	0.0016844919786096195	0.0019117647058823574	0.001764705882352935	0.0019607843137254945	0.0018067226890756398	0.001830065359477129	0.0017156862745097978	0.001970588235294117
noise.cont.8329	5.88235294117645E-4	-15.981308411217842	7	0.0017647058823529404	0.0017156862745098256	0.0016806722689075729	0.001911764705882346	0.001764705882352935	0.0019607843137254906	0.0018067226890756366	0.0018235294117647128	0.0017058823529411868	0.001960784313725502
noise.cont.6476	5.88235294117645E-4	-15.981308411215439	6	0.0017647058823529395	0.0017156862745098015	0.0016806722689075664	0.0018954248366013003	0.0017436974789915986	0.001960784313725487	0.00180672268907563	0.0018235294117647128	0.0017058823529411814	0.001960784313725493
noise.cont.9753	5.88235294117645E-4	-15.981308411215004	10	0.0017647058823529367	0.0017156862745097978	0.001680672268907557	0.001890756302521016	0.0017352941176470606	0.0019607843137254832	0.001806722689075627	0.0018235294117646995	0.0017058823529411758	0.001960784313725487
noise.discrete.7659	5.88235294117645E-4	-16.525423728813532	7	0.001764705882352935	0.0017156862745097978	0.0016764705882352994	0.001882352941176475	0.0017279411764705823	0.0019485294117647114	0.0018014705882352876	0.0018137254901960775	0.0017058823529411704	0.0019607843137254832
noise.cont.5201	5.88235294117645E-4	-16.525423728813532	7	0.001764705882352935	0.0017156862745097978	0.0016666666666666791	0.0018823529411764704	0.001727941176470582	0.0019485294117646988	0.0018014705882352876	0.0018137254901960719	0.0017058823529411704	0.0019485294117647088
noise.cont.1103	5.637254901960857E-4	-18.11173184357626	12	0.0017379679144385006	0.0017112299465240662	0.001666666666666673	0.0018750000000000058	0.0017226890756302602	0.0019411764705882285	0.0017973856209150497	0.001806722689075627	0.0016911764705882543	0.0019411764705882372
noise.cont.2287	5.614973262032167E-4	-17.841584158418105	11	0.0017379679144384984	0.0017058823529411903	0.001666666666666661	0.0018749999999999934	0.0017226890756302461	0.0019327731092436923	0.0017941176470588304	0.0018067226890756253	0.0016911764705882417	0.0019411764705882285
noise.cont.5233	5.614973262032086E-4	-17.307692307693724	11	0.0017352941176470525	0.0017058823529411717	0.0016666666666666607	0.001862745098039231	0.0017156862745097978	0.0019327731092436907	0.0017941176470588171	0.0018067226890756238	0.0016844919786096297	0.0019327731092437048
noise.cont.923	5.614973262032076E-4	-18.799242424245058	11	0.001727941176470596	0.0016911764705882487	0.0016666666666666607	0.0018627450980392183	0.0017156862745097978	0.0019117647058823663	0.001764705882352957	0.0018067226890756238	0.0016806722689075729	0.0019327731092437
noise.cont.2475	5.614973262032066E-4	-19.616600790515506	11	0.0017279411764705931	0.0016911764705882417	0.0016544117647058765	0.0018627450980392092	0.0017058823529411925	0.001890756302521005	0.001764705882352941	0.0018014705882352904	0.0016806722689075714	0.0019251336898395692
noise.discrete.7249	5.588235294117705E-4	-19.660869565217464	10	0.0017279411764705905	0.0016911764705882294	0.0016544117647058765	0.0018529411764705906	0.001705882352941186	0.0018823529411764795	0.0017647058823529404	0.0017941176470588171	0.0016806722689075714	0.0019117647058823563
noise.cont.755	5.588235294117649E-4	-17.527131782947684	10	0.0017279411764705836	0.0016764705882352925	0.00165158371040724	0.0018529411764705828	0.0017058823529411704	0.001882352941176464	0.001764705882352935	0.001764705882352957	0.0016806722689075696	0.0019117647058823472
noise.discrete.9009	5.294117647058838E-4	-16.74939759036287	10	0.001727941176470582	0.001666666666666661	0.0016470588235294216	0.0018487394957983159	0.0017058823529411693	0.0018823529411764617	0.001764705882352935	0.001764705882352957	0.0016806722689075696	0.001911764705882346
noise.cont.8916	5.294117647058826E-4	-17.339999999999943	10	0.0017226890756302461	0.0016666666666666607	0.0016386554621848745	0.0018487394957983126	0.0016911764705882571	0.0018750000000000045	0.001764705882352935	0.001764705882352946	0.001680672268907557	0.0018954248366013127
noise.discrete.7297	5.294117647058805E-4	-14.820512820513617	15	0.0017226890756302461	0.0016470588235294147	0.0016176470588235487	0.0018449197860962601	0.0016911764705882294	0.0018716577540106986	0.001764705882352935	0.0017647058823529432	0.0016764705882352884	0.0018907563025210175
noise.cont.231	5.228758169934622E-4	-13.282539682539088	9	0.0017226890756302461	0.001647058823529406	0.0016176470588235403	0.0018382352941176626	0.0016806722689075729	0.0018627450980392276	0.001764705882352935	0.001764705882352941	0.0016544117647058904	0.001882352941176475
noise.discrete.3882	5.228758169934622E-4	-12.754766600921327	9	0.0017194570135746546	0.0016386554621848823	0.0016176470588235238	0.0018382352941176405	0.0016806722689075729	0.0018627450980392092	0.0017647058823529334	0.001764705882352939	0.0016470588235294192	0.0018749999999999988
noise.cont.9659	5.22875816993461E-4	-14.337882234015424	9	0.0017156862745097978	0.001638655462184868	0.0016176470588235236	0.0018382352941176405	0.0016806722689075729	0.0018627450980392092	0.0017379679144385067	0.0017647058823529367	0.0016470588235294125	0.0018627450980392257
noise.discrete.2353	5.080213903743298E-4	-12.70399113082163	11	0.0017156862745097978	0.0016176470588235338	0.0016176470588235236	0.0018300653594771228	0.0016806722689075618	0.0018627450980392092	0.0017352941176470627	0.0017320261437908484	0.001638655462184881	0.0018627450980392257
noise.discrete.4794	5.042016806722672E-4	-13.172348484848392	7	0.0017156862745097978	0.0016176470588235238	0.0016176470588235236	0.0018235294117647128	0.001676470588235297	0.0018627450980392092	0.0017352941176470617	0.0017279411764705946	0.0016386554621848793	0.0018627450980392088
noise.discrete.7654	5.000000000000049E-4	-13.71005917159784	10	0.0017058823529411758	0.0016176470588235238	0.0016042780748663046	0.0018235294117647128	0.0016666666666666698	0.0018487394957983302	0.0017279411764705877	0.0017279411764705836	0.0016386554621848778	0.001848739495798327
noise.cont.8490	4.901960784313874E-4	-12.66666666666723	6	0.0017058823529411727	0.0016176470588235236	0.0016013071895424854	0.0018235294117647037	0.0016666666666666663	0.0018487394957983159	0.0017226890756302635	0.001722689075630254	0.0016176470588235444	0.0018382352941176405
noise.cont.3342	4.901960784313708E-4	-11.891156462585759	9	0.0017058823529411727	0.0016013071895424902	0.0015966386554621952	0.0018235294117646995	0.0016666666666666627	0.0018487394957983144	0.001722689075630254	0.0017226890756302461	0.0016176470588235362	0.0018235294117647093
noise.cont.3946	4.901960784313708E-4	-12.416666666667513	6	0.0016993464052287644	0.0016013071895424778	0.0015966386554621904	0.0018137254901960905	0.0016666666666666627	0.0018382352941176405	0.0017226890756302461	0.0017156862745098108	0.0016176470588235349	0.0018137254901960719
noise.cont.1789	4.7794117647059623E-4	-13.403846153845794	8	0.0016806722689075586	0.0015966386554621792	0.0015882352941176548	0.0018137254901960831	0.0016544117647058904	0.0018382352941176405	0.0017156862745098108	0.0017156862745098015	0.001617647058823525	0.0018067226890756286
noise.cont.8234	4.779411764705865E-4	-14.109756097560986	8	0.001680672268907557	0.0015966386554621792	0.0015882352941176414	0.001813725490196074	0.0016544117647058765	0.00183006535947713	0.0017058823529411704	0.0017156862745097978	0.0016176470588235238	0.0018067226890756253
noise.discrete.1256	4.7058823529412265E-4	-14.195121951219447	10	0.001680672268907557	0.0015966386554621792	0.0015882352941176414	0.0018137254901960719	0.0016470588235294216	0.001823529411764706	0.0017058823529411704	0.0017156862745097978	0.0016176470588235238	0.0018014705882353015
noise.cont.853	4.70588235294116E-4	-14.999999999996605	5	0.0016764705882352994	0.0015882352941176414	0.0015837104072398177	0.0018067226890756398	0.001647058823529406	0.0018235294117646995	0.0016911764705882571	0.0017156862745097978	0.0016176470588235238	0.0018014705882352891
noise.discrete.7091	4.70588235294116E-4	-15.169230769228884	5	0.001666666666666672	0.001580882352941182	0.0015808823529411848	0.0018014705882353002	0.001638655462184876	0.0018235294117646904	0.0016911764705882543	0.0017156862745097978	0.0016176470588235238	0.0017941176470588228
noise.cont.7142	4.65686274509806E-4	-16.499999999997588	12	0.001666666666666661	0.0015808823529411807	0.0015808823529411737	0.0018014705882353002	0.0016386554621848697	0.001806722689075638	0.0016911764705882487	0.0017156862745097978	0.0016176470588235236	0.001764705882352957
noise.discrete.9829	4.656862745098041E-4	-14.849999999999936	12	0.0016666666666666607	0.001580882352941171	0.001580882352941171	0.0017647058823529599	0.001638655462184868	0.0018067226890756366	0.0016911764705882417	0.0017058823529411704	0.001601307189542489	0.0017647058823529473
noise.discrete.5549	4.575163398692893E-4	-14.885714285713048	9	0.0016666666666666607	0.0015686274509803977	0.001568627450980394	0.0017647058823529508	0.0016176470588235513	0.0018067226890756238	0.0016806722689075586	0.0016993464052287633	0.0016013071895424778	0.001764705882352947
noise.discrete.2512	4.5751633986927946E-4	-14.472222222221962	9	0.0016666666666666607	0.0015686274509803964	0.0015686274509803867	0.0017647058823529501	0.0016176470588235362	0.0018067226890756238	0.0016806722689075586	0.0016911764705882459	0.0015966386554621872	0.001764705882352946
noise.cont.8136	4.5751633986927946E-4	-13.759259259260713	9	0.0016666666666666594	0.0015686274509803927	0.0015546218487394934	0.0017647058823529443	0.0016176470588235349	0.0018014705882353002	0.0016764705882352903	0.0016911764705882433	0.0015882352941176635	0.0017647058823529384
noise.cont.5702	4.411764705882504E-4	-14.850746268655923	8	0.0016544117647058875	0.0015686274509803904	0.001554621848739492	0.0017647058823529423	0.0016176470588235238	0.0017941176470588171	0.0016666666666666607	0.0016911764705882365	0.0015882352941176414	0.0017647058823529367
noise.discrete.8869	4.411764705882504E-4	-15.919354838709783	6	0.0016544117647058806	0.0015686274509803904	0.001554621848739492	0.0017647058823529378	0.0016176470588235238	0.0017647058823529497	0.001647058823529416	0.0016911764705882322	0.0015808823529411833	0.001764705882352935
noise.discrete.3675	4.4117647058823374E-4	-15.919354838709463	10	0.0016544117647058765	0.0015686274509803886	0.0015546218487394903	0.001764705882352935	0.0016176470588235236	0.001764705882352946	0.0016470588235294105	0.0016911764705882313	0.001580882352941171	0.001764705882352935
noise.cont.2268	4.4117647058823374E-4	-16.18867924528193	10	0.0016470588235294216	0.0015686274509803865	0.0015508021390374426	0.001764705882352935	0.0016013071895424902	0.0017647058823529428	0.001638655462184876	0.0016806722689075714	0.0015686274509803988	0.001764705882352935
noise.cont.9959	4.4117647058823374E-4	-15.617021276595025	10	0.001647058823529406	0.0015588235294117592	0.001544117647058818	0.001727941176470596	0.0016013071895424817	0.001764705882352941	0.0016339869281045867	0.001680672268907557	0.0015686274509803958	0.001764705882352935
noise.cont.8415	4.278074866310145E-4	-19.081218274111258	11	0.0016310160427807458	0.0015546218487395014	0.0015359477124183075	0.00172268907563027	0.0015966386554621807	0.0017647058823529367	0.0016176470588235418	0.0016666666666666791	0.0015686274509803927	0.0017379679144385015
noise.cont.1253	4.278074866310145E-4	-21.23863636363099	11	0.0016176470588235385	0.001554621848739492	0.0015359477124183014	0.0017156862745098163	0.0015966386554621792	0.001764705882352935	0.0016176470588235403	0.001666666666666673	0.0015686274509803865	0.0017379679144384965
noise.discrete.7371	4.24836601307188E-4	-19.578544061300487	9	0.0016176470588235349	0.0015546218487394903	0.0015294117647058991	0.0017156862745098072	0.0015882352941176414	0.001764705882352935	0.0016176470588235375	0.001666666666666661	0.0015588235294117692	0.0017320261437908523
noise.cont.791	4.24836601307188E-4	-18.02469135802527	9	0.0016176470588235338	0.0015441176470588319	0.0015294117647058768	0.0017058823529411903	0.0015882352941176414	0.0017320261437908534	0.001617647058823532	0.0016470588235294238	0.001558823529411767	0.001727941176470589
noise.discrete.9622	4.1176470588235816E-4	-17.66153846154053	10	0.0016176470588235314	0.0015441176470588278	0.001519607843137253	0.0017058823529411704	0.0015808823529411791	0.0017320261437908436	0.0016176470588235255	0.001647058823529417	0.0015546218487395061	0.0017279411764705862
noise.discrete.8460	4.044117647058809E-4	-17.769230769232685	8	0.0016176470588235275	0.0015441176470588236	0.0015196078431372495	0.001699346405228773	0.0015686274509803975	0.0017279411764705918	0.0016176470588235236	0.001647058823529406	0.001554621848739503	0.0017279411764705862
noise.discrete.5797	4.0106951871657614E-4	-17.818181818181625	11	0.001617647058823525	0.001544117647058818	0.001512605042016814	0.0016993464052287583	0.0015686274509803865	0.001727941176470582	0.0016176470588235236	0.0016386554621848793	0.0015546218487394903	0.0017226890756302587
noise.cont.8061	3.9215686274509667E-4	-16.66666666666681	9	0.001617647058823525	0.001544117647058818	0.0015126050420168015	0.0016911764705882571	0.0015686274509803865	0.001727941176470582	0.0016176470588235236	0.001638655462184868	0.0015441176470588208	0.0017226890756302461
noise.cont.1292	3.9215686274509667E-4	-20.632911392404804	9	0.0016042780748663082	0.001544117647058818	0.0015073529411764777	0.0016911764705882376	0.0015546218487395061	0.0017156862745098126	0.0016013071895424756	0.001638655462184868	0.001544117647058818	0.0017226890756302461
noise.discrete.6299	3.743315508021377E-4	-22.324951644095336	11	0.001601307189542489	0.001544117647058818	0.0015073529411764764	0.0016844919786096308	0.0015546218487395046	0.0017156862745098054	0.0015966386554621952	0.0016339869281045694	0.001544117647058818	0.0017156862745097978
noise.discrete.477	3.743315508021377E-4	-18.473111395648175	11	0.0016013071895424817	0.0015294117647058803	0.0015073529411764707	0.0016806722689075664	0.0015508021390374287	0.0017156862745097978	0.0015966386554621792	0.0016310160427807448	0.0015359477124183064	0.0017112299465240621
noise.discrete.5614	3.6199095022624304E-4	-19.52307692307938	13	0.001588235294117646	0.001529411764705877	0.0015073529411764707	0.001680672268907557	0.001544117647058818	0.001705882352941186	0.0015966386554621792	0.0016176470588235375	0.0015294117647058967	0.0017058823529411782
noise.cont.503	3.431372549019596E-4	-21.166666666669215	12	0.0015882352941176425	0.0015294117647058768	0.0014973262032085518	0.0016666666666666774	0.0015384615384615328	0.0017058823529411717	0.0015882352941176414	0.0016176470588235236	0.0015294117647058924	0.0017058823529411704
noise.discrete.4003	3.2679738562091387E-4	-22.629629629626315	9	0.001568627450980405	0.0015196078431372495	0.0014705882352941267	0.001666666666666673	0.0015294117647058924	0.0017058823529411682	0.001580882352941175	0.0016176470588235236	0.0015196078431372552	0.0017058823529411704
noise.discrete.4962	3.167420814479627E-4	-19.36865021770499	13	0.0015686274509804034	0.0014999999999999948	0.0014705882352941246	0.0016666666666666728	0.001524064171122993	0.0016993464052287557	0.001580882352941171	0.001601307189542488	0.001519607843137253	0.0017058823529411682
noise.discrete.5893	2.941176470588336E-4	-20.019999999997495	8	0.0015686274509803995	0.001497326203208551	0.0014705882352941237	0.0016666666666666711	0.0015240641711229902	0.0016911764705882433	0.0015686274509803977	0.001601307189542484	0.0015126050420168093	0.001699346405228768
noise.cont.4446	2.941176470588225E-4	-20.01999999999924	11	0.0015686274509803904	0.0014973262032085507	0.0014705882352941124	0.0016666666666666663	0.0015196078431372495	0.0016911764705882417	0.001568627450980394	0.001593137254901956	0.0015126050420168076	0.0016993464052287533
noise.cont.1692	2.696078431372539E-4	-22.363636363636207	12	0.0015546218487394934	0.0014950980392156828	0.0014705882352941124	0.001666666666666661	0.0015126050420168173	0.0016911764705882376	0.0015686274509803865	0.001588235294117648	0.0015126050420168015	0.0016911764705882348
noise.cont.1402	2.6470588235294023E-4	-21.269565217389758	10	0.0015441176470588347	0.0014705882352941345	0.0014705882352941124	0.0016666666666666607	0.0015073529411764653	0.0016911764705882294	0.0015546218487395061	0.0015882352941176414	0.0015126050420167997	0.001691176470588232
noise.discrete.1168	2.614379084967311E-4	-20.626168224302774	9	0.0015441176470588236	0.0014705882352941345	0.0014705882352941124	0.0016577540106951815	0.0015032679738562111	0.001676470588235296	0.001554621848739492	0.0015882352941176414	0.0015073529411764707	0.0016911764705882294
noise.cont.4493	2.450980392156854E-4	-19.605263157897586	12	0.0015441176470588208	0.001470588235294125	0.0014705882352941124	0.0016544117647058806	0.0014950980392156902	0.001674208144796381	0.0015546218487394903	0.0015808823529411848	0.0015073529411764694	0.0016806722689075603
noise.cont.8720	2.35294117647058E-4	-17.800000000001496	10	0.001544117647058818	0.0014705882352941235	0.0014705882352941124	0.0016544117647058765	0.0014705882352941267	0.0016666666666666774	0.0015441176470588319	0.0015808823529411848	0.0015073529411764653	0.0016806722689075586
